{
  "project_info": {
    "project_number": "425653551653",
    "firebase_url": "https://typetest-36286.firebaseio.com",
    "project_id": "typetest-36286",
    "storage_bucket": "typetest-36286.appspot.com"
  },
  "client": [
    {
      "client_info": {
        "mobilesdk_app_id": "1:425653551653:android:c1ed8f5aa26e086e",
        "android_client_info": {
          "package_name": "com.dreamyazilim.TypeTest"
        }
      },
      "oauth_client": [
        {
          "client_id": "425653551653-io2ubvsatdn3qtjmhrae34fe1au2ishi.apps.googleusercontent.com",
          "client_type": 1,
          "android_info": {
            "package_name": "com.dreamyazilim.TypeTest",
            "certificate_hash": "21315df1c579686977d5fc41722c01447ab385d5"
          }
        },
        {
          "client_id": "425653551653-2pb295tlmugkuc6qb6203g8iuegne6h3.apps.googleusercontent.com",
          "client_type": 3
        }
      ],
      "api_key": [
        {
          "current_key": "AIzaSyDrcPh07Wi1q8_TKSl579Nss5QDl41UKA8"
        }
      ],
      "services": {
        "analytics_service": {
          "status": 1
        },
        "appinvite_service": {
          "status": 2,
          "other_platform_oauth_client": [
            {
              "client_id": "425653551653-2pb295tlmugkuc6qb6203g8iuegne6h3.apps.googleusercontent.com",
              "client_type": 3
            }
          ]
        },
        "ads_service": {
          "status": 2
        }
      },
      "admob_app_id": "ca-app-pub-1610312558419875~6578892972"
    }
  ],
  "configuration_version": "1"
}